{
  "version": 1,
  "license": "CC-BY-SA-3.0",
  "copyright": "Taken from tgstation at https://github.com/tgstation/tgstation/commit/e1142f20f5e4661cb6845cfcf2dd69f864d67432, orb, orb-inhand-left and orb-inhand-right created by Pancake, plushie_diona and plushie_diona1 created by discord user Deos#5630, toy-mouse-equipped-HELMET is a resprited 1-equipped-HELMET in mouse.rsi by PuroSlavKing (Github), plushie_xeno by LinkUyx#6557, plushie_hampter by RenLou#4333, beachball taken from https://github.com/ss220-space/Paradise/commit/662c08272acd7be79531550919f56f846726eabb, beachb-inhand by ;3#1161, PlushieRouter - BasedUser#2215 201731509223292928, PlushAurora - SWG#6421 481693809806278657 ",
  "size": {
    "x": 32,
    "y": 32
  },
    "states": [
        {
            "name": "plushie_ratvar"
        },
        {
            "name": "plushie_rouny",
            "directions": 4
        },
        {
            "name": "plushie_spacelizard"
        },
        {
            "name": "carpplush"
        },
        {
            "name": "narplush"
        },
        {
            "name": "plushie_h"
        },
		{
            "name": "plushie_hampter"
        },
        {
            "name": "plushie_lizard"
        },
        {
            "name": "plushie_lamp"
        },
        {
            "name": "plushie_nuke"
        },
        {
            "name": "plushie_atmosian"
        },
        {
            "name": "plushie_slime"
        },
        {
            "name": "plushie_snake"
        },
        {
            "name": "plushie_vox"
        },
        {
            "name": "plushie_diona"
        },
        {
            "name": "plushie_diona1"
        },
        {
            "name": "plushie_xeno"
        },
        {
            "name": "carpplush-inhand-left",
            "directions": 4
        },
        {
            "name": "carpplush-inhand-right",
            "directions": 4
        },
        {
            "name": "AI"
        },
        {
            "name": "base"
        },
        {
            "name": "bolt-closed"
        },
        {
            "name": "bolt-open"
        },
        {
            "name": "foamblade"
        },
        {
            "name": "foamcrossbow"
        },
        {
            "name": "foamdart"
        },
        {
            "name": "foambox"
        },
        {
            "name": "ian"
        },
        {
            "name": "nuketoy"
        },
        {
            "name": "snappop"
        },
        {
            "name": "spbox"
        },
        {
            "name": "toy_mouse"
        },
        {
            "name": "mouse-equipped-HELMET",
            "directions": 4
        },
        {
            "name": "capbullet"
        },
        {
            "name": "foamcrossbow-inhand-right",
            "directions": 4
        },
        {
            "name": "foamcrossbow-inhand-left",
            "directions": 4
        },
        {
            "name": "capgun-inhand-right",
            "directions": 4
        },
        {
            "name": "capgun-inhand-left",
            "directions": 4
        },
        {
            "name": "foamblade-inhand-right",
            "directions": 4
        },
        {
            "name": "foamblade-inhand-left",
            "directions": 4
        },
        {
            "name": "corgib-inhand-right",
            "directions": 4
        },
        {
            "name": "corgib-inhand-left",
            "directions": 4
        },
        {
            "name": "synb-inhand-left",
            "directions": 4
        },
        {
            "name": "synb-inhand-right",
            "directions": 4
        },
        {
            "name": "synb"
        },
        {
            "name": "corgib"
        },
        {
            "name": "football"
        },
        {
            "name": "footb-inhand-right",
            "directions": 4
        },
        {
            "name": "footb-inhand-left",
            "directions": 4
        },
        {
            "name": "basketball"
        },
        {
            "name": "bask-inhand-right",
            "directions": 4,
            "delays": [
                [
                    0.1,
                    0.1,
                    0.1,
                    0.1,
                    0.1
                ],
                [
                    0.1,
                    0.1,
                    0.1,
                    0.1,
                    0.1
                ],
                [
                    0.1,
                    0.1,
                    0.1,
                    0.1,
                    0.1
                ],
                [
                    0.1,
                    0.1,
                    0.1,
                    0.1,
                    0.1
                ]
            ]
        },
        {
            "name": "bask-inhand-left",
            "directions": 4,
            "delays": [
                [
                    0.1,
                    0.1,
                    0.1,
                    0.1,
                    0.1
                ],
                [
                    0.1,
                    0.1,
                    0.1,
                    0.1,
                    0.1
                ],
                [
                    0.1,
                    0.1,
                    0.1,
                    0.1,
                    0.1
                ],
                [
                    0.1,
                    0.1,
                    0.1,
                    0.1,
                    0.1
                ]
            ]
        },
        {
            "name": "singularitytoy",
            "delays": [
                [
                    0.1,
                    0.1,
                    0.1,
                    0.1,
                    0.1,
                    0.1,
                    0.1,
                    0.1
                ]
            ]
        },
        {
            "name": "orb",
            "delays": [
                [
                    0.2,
                    0.2,
                    0.2,
                    0.2
                ]
            ]
        },
        {
            "name": "orb-inhand-left",
            "directions": 4
        },
        {
            "name": "orb-inhand-right",
            "directions": 4
        },
        {
            "name": "beachball"
        },
        {
            "name": "beachb-inhand-left",
            "directions": 4
        },
        {
            "name": "beachb-inhand-right",
            "directions": 4
        },
		{
			"name": "PlushieRouter"
		},
		{
			"name": "PlushAurora"
		},
		{
			"name": "PlushRaysoft"
		}
    ]
}
