{
  "version": 1,
  "license": "CC-BY-SA-3.0",
  "copyright": "Taken from tgstation at commit https://github.com/tgstation/tgstation/commit/d917f4c2a088419d5c3aec7656b7ff8cebd1822e idcluwne made by brainfood1183 (github) for ss14, idbrigmedic made by PuroSlavKing (Github) | CBURN by discord user Unterik#0696(382555617128349709)",
  "size": {
    "x": 32,
    "y": 32
  },
  "states": [
    {
      "name": "default"
    },
    {
      "name": "centcom"
    },
    {
      "name": "ert_chaplain"
    },
    {
      "name": "ert_commander"
    },
    {
      "name": "ert_engineer"
    },
    {
      "name": "ert_janitor"
    },
    {
      "name": "ert_medic"
    },
    {
      "name": "ert_security"
    },
    {
      "name": "gold"
    },
    {
      "name": "idpassenger"
    },
    {
      "name": "idatmospherictechnician"
    },
    {
      "name": "idbartender"
    },
    {
      "name": "idbotanist"
    },
    {
      "name": "idboxer"
    },
    {
      "name": "idcaptain"
    },
    {
      "name": "idcargotechnician"
    },
    {
      "name": "idcentcom"
    },
    {
      "name": "idchaplain"
    },
    {
      "name": "idchemist"
    },
    {
      "name": "idchiefengineer"
    },
    {
      "name": "idchiefmedicalofficer"
    },
    {
      "name": "idclown"
    },
    {
      "name": "idcook"
    },
    {
      "name": "idcurator"
    },
    {
      "name": "iddetective"
    },
    {
      "name": "idgeneticist"
    },
    {
      "name": "idheadofpersonnel"
    },
    {
      "name": "idheadofsecurity"
    },
    {
      "name": "idbrigmedic"
    },
    {
      "name": "idjanitor"
    },
    {
      "name": "idlawyer"
    },
    {
      "name": "idiaa"
    },
    {
      "name": "idmedicaldoctor"
    },
    {
      "name": "idmime"
    },
    {
      "name": "idparamedic"
    },
    {
      "name": "idpsychologist"
    },
    {
      "name": "idreporter"
    },
    {
      "name": "idprisoner"
    },
    {
      "name": "idquartermaster"
    },
    {
      "name": "idresearchdirector"
    },
    {
      "name": "idroboticist"
    },
    {
      "name": "idscientist"
    },
    {
      "name": "idsecurityofficer"
    },
    {
      "name": "idshaftminer"
    },
    {
      "name": "idstationengineer"
    },
    {
      "name": "idunknown"
    },
    {
      "name": "idvirologist"
    },
    {
      "name": "idwarden"
    },
    {
      "name": "idmusician"
    },
    {
      "name": "idzookeeper"
    },
    {
      "name": "idintern-sci"
    },
    {
      "name": "idintern-cadet"
    },
    {
      "name": "idintern-med"
    },
    {
      "name": "idintern-service"
    },
    {
      "name": "idintern-tech"
    },
    {
      "name": "orange"
    },
    {
      "name": "prisoner_001"
    },
    {
      "name": "prisoner_002"
    },
    {
      "name": "prisoner_003"
    },
    {
      "name": "prisoner_004"
    },
    {
      "name": "prisoner_005"
    },
    {
      "name": "prisoner_006"
    },
    {
      "name": "prisoner_007"
    },
    {
      "name": "silver"
    },
    {
      "name": "syndie"
    },
	{
      "name": "idcluwne"
    },
    {
      "name": "idseniorengineer"
    },
    {
      "name": "idseniorresearcher"
    },
    {
      "name": "idseniorphysician"
    },
    {
      "name": "idseniorofficer"
    },
    {
      "name": "gold-inhand-left",
      "directions": 4
    },
    {
      "name": "gold-inhand-right",
      "directions": 4
    },
    {
      "name": "default-inhand-left",
      "directions": 4
    },
    {
      "name": "default-inhand-right",
      "directions": 4
    },
    {
      "name": "silver-inhand-left",
      "directions": 4
    },
    {
      "name": "silver-inhand-right",
      "directions": 4
    },
    {
      "name": "orange-inhand-left",
      "directions": 4
    },
    {
      "name": "orange-inhand-right",
      "directions": 4
    },
    {
      "name": "blue-inhand-left",
      "directions": 4
    },
    {
      "name": "blue-inhand-right",
      "directions": 4
    },
	{
	  "name": "CBURN"
	}
  ]
}
